{
    "value0": [
        {
            "key": 119218,
            "value": [
                1.0,
                2.07,
                1.27,
                1.98,
                35.62,
                31.22
            ]
        },
        {
            "key": 119219,
            "value": [
                1.0,
                2.03,
                1.27,
                2.07,
                34.75,
                30.29
            ]
        },
        {
            "key": 119220,
            "value": [
                1.0,
                2.03,
                1.31,
                2.2,
                34.45,
                30.29
            ]
        },
        {
            "key": 119221,
            "value": [
                1.0,
                2.08,
                1.25,
                1.96,
                34.45,
                32.56
            ]
        },
        {
            "key": 119222,
            "value": [
                1.0,
                2.0,
                1.18,
                1.6,
                36.79,
                26.72
            ]
        },
        {
            "key": 119223,
            "value": [
                1.0,
                2.0,
                1.26,
                1.88,
                36.33,
                29.44
            ]
        },
        {
            "key": 119224,
            "value": [
                1.0,
                1.99,
                1.12,
                1.88,
                30.49,
                22.92
            ]
        },
        {
            "key": 119225,
            "value": [
                1.0,
                1.96,
                1.12,
                1.94,
                30.49,
                26.91
            ]
        },
        {
            "key": 119226,
            "value": [
                1.0,
                1.92,
                1.26,
                1.86,
                30.49,
                26.91
            ]
        },
        {
            "key": 119227,
            "value": [
                1.0,
                1.81,
                1.35,
                1.91,
                25.92,
                26.07
            ]
        },
        {
            "key": 119228,
            "value": [
                1.0,
                1.85,
                1.35,
                1.97,
                25.92,
                25.98
            ]
        },
        {
            "key": 119229,
            "value": [
                1.0,
                1.85,
                1.35,
                1.97,
                27.68,
                25.98
            ]
        },
        {
            "key": 119234,
            "value": [
                1.0,
                250.0,
                1.35,
                1.97,
                26.63,
                28.2
            ]
        },
        {
            "key": 119235,
            "value": [
                1.0,
                250.0,
                1.4,
                1.97,
                26.63,
                28.2
            ]
        },
        {
            "key": 119236,
            "value": [
                1.0,
                1.79,
                1.34,
                1.82,
                26.21,
                28.2
            ]
        },
        {
            "key": 119237,
            "value": [
                1.0,
                1.79,
                1.37,
                1.84,
                26.21,
                28.2
            ]
        },
        {
            "key": 119239,
            "value": [
                1.0,
                1.92,
                1.34,
                1.83,
                29.59,
                28.36
            ]
        },
        {
            "key": 119240,
            "value": [
                1.0,
                1.95,
                250.0,
                251.67,
                29.59,
                28.44
            ]
        },
        {
            "key": 119241,
            "value": [
                1.0,
                1.91,
                1.45,
                40.73,
                33.08,
                28.44
            ]
        },
        {
            "key": 119242,
            "value": [
                1.0,
                1.91,
                1.4,
                1.96,
                33.08,
                26.7
            ]
        },
        {
            "key": 119243,
            "value": [
                1.0,
                1.78,
                1.71,
                1.87,
                33.08,
                27.89
            ]
        },
        {
            "key": 119244,
            "value": [
                1.0,
                1.83,
                1.86,
                1.48,
                35.69,
                26.36
            ]
        },
        {
            "key": 119245,
            "value": [
                1.0,
                1.76,
                1.79,
                1.68,
                35.69,
                31.2
            ]
        },
        {
            "key": 119246,
            "value": [
                1.0,
                1.75,
                1.83,
                1.73,
                35.65,
                30.24
            ]
        },
        {
            "key": 119247,
            "value": [
                1.0,
                1.75,
                1.9,
                1.81,
                32.14,
                30.29
            ]
        },
        {
            "key": 119248,
            "value": [
                1.0,
                1.8,
                1.87,
                1.84,
                32.26,
                29.45
            ]
        },
        {
            "key": 119249,
            "value": [
                1.0,
                1.78,
                1.78,
                1.8,
                34.26,
                30.83
            ]
        },
        {
            "key": 119250,
            "value": [
                1.0,
                1.78,
                1.75,
                1.98,
                31.41,
                33.67
            ]
        },
        {
            "key": 119251,
            "value": [
                1.0,
                2.17,
                1.85,
                1.99,
                31.41,
                34.49
            ]
        },
        {
            "key": 119252,
            "value": [
                1.0,
                2.23,
                1.82,
                2.03,
                34.54,
                36.05
            ]
        },
        {
            "key": 119253,
            "value": [
                1.0,
                2.11,
                1.81,
                2.16,
                34.79,
                32.38
            ]
        },
        {
            "key": 119255,
            "value": [
                1.0,
                2.11,
                1.84,
                2.1,
                35.52,
                36.41
            ]
        },
        {
            "key": 119256,
            "value": [
                1.0,
                2.13,
                1.84,
                2.1,
                36.72,
                35.82
            ]
        },
        {
            "key": 119257,
            "value": [
                1.0,
                2.13,
                1.88,
                2.09,
                36.19,
                39.48
            ]
        },
        {
            "key": 119258,
            "value": [
                1.0,
                2.11,
                1.84,
                2.04,
                36.93,
                39.48
            ]
        },
        {
            "key": 119259,
            "value": [
                1.0,
                2.11,
                1.84,
                2.04,
                36.93,
                34.35
            ]
        },
        {
            "key": 119260,
            "value": [
                1.0,
                2.02,
                1.76,
                1.99,
                37.37,
                35.81
            ]
        },
        {
            "key": 119261,
            "value": [
                1.0,
                1.82,
                1.86,
                1.99,
                38.17,
                35.91
            ]
        },
        {
            "key": 119262,
            "value": [
                1.0,
                1.95,
                1.86,
                1.67,
                38.17,
                35.91
            ]
        },
        {
            "key": 119263,
            "value": [
                1.0,
                1.72,
                1.86,
                1.79,
                40.23,
                35.9
            ]
        },
        {
            "key": 119264,
            "value": [
                1.0,
                1.8,
                1.71,
                1.74,
                39.47,
                36.26
            ]
        },
        {
            "key": 119265,
            "value": [
                1.0,
                1.78,
                1.71,
                1.86,
                39.47,
                36.69
            ]
        },
        {
            "key": 119266,
            "value": [
                1.0,
                1.69,
                1.76,
                1.86,
                39.47,
                36.69
            ]
        },
        {
            "key": 119267,
            "value": [
                1.0,
                1.7,
                1.82,
                1.78,
                39.02,
                36.69
            ]
        },
        {
            "key": 119268,
            "value": [
                1.0,
                1.74,
                1.82,
                1.84,
                39.49,
                36.69
            ]
        },
        {
            "key": 119269,
            "value": [
                1.0,
                1.76,
                1.8,
                1.75,
                39.49,
                36.69
            ]
        },
        {
            "key": 119270,
            "value": [
                1.0,
                1.81,
                1.8,
                1.86,
                39.49,
                36.69
            ]
        },
        {
            "key": 119272,
            "value": [
                1.0,
                1.86,
                1.83,
                1.85,
                38.37,
                38.04
            ]
        },
        {
            "key": 119273,
            "value": [
                1.0,
                1.82,
                1.83,
                1.85,
                38.28,
                35.75
            ]
        },
        {
            "key": 119274,
            "value": [
                1.0,
                1.81,
                1.81,
                1.75,
                38.28,
                35.75
            ]
        },
        {
            "key": 119275,
            "value": [
                1.0,
                1.84,
                1.8,
                1.82,
                38.36,
                35.75
            ]
        },
        {
            "key": 119276,
            "value": [
                1.0,
                1.76,
                1.84,
                1.73,
                38.58,
                39.03
            ]
        },
        {
            "key": 119277,
            "value": [
                1.0,
                1.82,
                1.79,
                1.78,
                38.58,
                39.28
            ]
        },
        {
            "key": 119293,
            "value": [
                1.0,
                1.63,
                1.78,
                1.78,
                38.13,
                40.08
            ]
        },
        {
            "key": 119294,
            "value": [
                1.0,
                1.63,
                1.78,
                1.78,
                38.57,
                40.08
            ]
        },
        {
            "key": 119295,
            "value": [
                1.0,
                1.74,
                1.76,
                1.82,
                37.53,
                41.42
            ]
        },
        {
            "key": 119296,
            "value": [
                1.0,
                1.78,
                1.76,
                1.83,
                37.53,
                41.42
            ]
        },
        {
            "key": 119297,
            "value": [
                1.0,
                1.6,
                1.76,
                1.73,
                38.22,
                37.52
            ]
        },
        {
            "key": 119298,
            "value": [
                1.0,
                1.6,
                1.8,
                1.66,
                37.16,
                35.4
            ]
        },
        {
            "key": 119299,
            "value": [
                1.0,
                1.6,
                1.77,
                1.73,
                36.81,
                35.4
            ]
        },
        {
            "key": 119300,
            "value": [
                1.0,
                1.76,
                1.81,
                1.8,
                36.81,
                40.22
            ]
        },
        {
            "key": 119301,
            "value": [
                1.0,
                1.77,
                1.82,
                1.8,
                36.81,
                40.22
            ]
        },
        {
            "key": 119302,
            "value": [
                1.0,
                1.77,
                1.83,
                1.8,
                36.52,
                40.22
            ]
        },
        {
            "key": 119303,
            "value": [
                1.0,
                1.77,
                1.83,
                1.8,
                36.37,
                39.54
            ]
        },
        {
            "key": 119304,
            "value": [
                1.0,
                1.77,
                1.84,
                1.8,
                36.37,
                39.54
            ]
        },
        {
            "key": 119305,
            "value": [
                1.0,
                1.79,
                1.85,
                1.8,
                36.61,
                39.54
            ]
        },
        {
            "key": 119306,
            "value": [
                1.0,
                1.79,
                1.87,
                1.8,
                36.61,
                39.59
            ]
        },
        {
            "key": 119311,
            "value": [
                1.0,
                1.78,
                1.79,
                1.81,
                42.01,
                36.76
            ]
        },
        {
            "key": 119312,
            "value": [
                1.0,
                1.8,
                1.81,
                1.81,
                42.01,
                36.76
            ]
        },
        {
            "key": 119313,
            "value": [
                1.0,
                1.88,
                1.81,
                1.79,
                23.92,
                36.84
            ]
        },
        {
            "key": 119316,
            "value": [
                1.0,
                1.88,
                1.77,
                1.75,
                31.97,
                35.46
            ]
        },
        {
            "key": 119317,
            "value": [
                1.0,
                1.88,
                1.77,
                1.77,
                31.97,
                35.46
            ]
        },
        {
            "key": 119319,
            "value": [
                1.0,
                1.88,
                1.69,
                1.87,
                31.97,
                35.46
            ]
        },
        {
            "key": 119320,
            "value": [
                1.0,
                1.83,
                1.71,
                1.82,
                31.58,
                36.68
            ]
        },
        {
            "key": 119321,
            "value": [
                1.0,
                1.94,
                1.83,
                2.0,
                34.46,
                35.61
            ]
        },
        {
            "key": 119322,
            "value": [
                1.0,
                1.94,
                1.83,
                2.0,
                31.2,
                35.61
            ]
        },
        {
            "key": 119323,
            "value": [
                1.0,
                1.84,
                1.71,
                1.93,
                31.2,
                34.54
            ]
        },
        {
            "key": 119324,
            "value": [
                1.0,
                1.73,
                1.71,
                1.94,
                31.2,
                34.6
            ]
        },
        {
            "key": 119325,
            "value": [
                1.0,
                1.73,
                1.71,
                1.94,
                31.2,
                34.6
            ]
        },
        {
            "key": 119326,
            "value": [
                1.0,
                1.73,
                1.71,
                1.94,
                31.2,
                34.6
            ]
        },
        {
            "key": 119327,
            "value": [
                1.0,
                1.73,
                1.73,
                1.78,
                31.2,
                34.6
            ]
        },
        {
            "key": 119328,
            "value": [
                1.0,
                1.75,
                1.74,
                1.85,
                36.08,
                37.5
            ]
        },
        {
            "key": 119329,
            "value": [
                1.0,
                1.55,
                1.74,
                1.85,
                32.39,
                37.5
            ]
        },
        {
            "key": 119330,
            "value": [
                1.0,
                1.68,
                1.74,
                1.77,
                32.47,
                36.4
            ]
        },
        {
            "key": 119331,
            "value": [
                1.0,
                1.65,
                1.74,
                1.79,
                32.47,
                37.17
            ]
        },
        {
            "key": 119332,
            "value": [
                1.0,
                1.63,
                1.68,
                1.79,
                32.47,
                37.01
            ]
        },
        {
            "key": 119333,
            "value": [
                1.0,
                1.61,
                1.63,
                1.79,
                32.47,
                37.01
            ]
        },
        {
            "key": 119334,
            "value": [
                1.0,
                1.57,
                1.66,
                1.82,
                33.09,
                35.85
            ]
        },
        {
            "key": 119335,
            "value": [
                1.0,
                1.57,
                1.69,
                1.82,
                31.93,
                38.5
            ]
        },
        {
            "key": 119336,
            "value": [
                1.0,
                1.57,
                1.63,
                1.87,
                31.93,
                37.28
            ]
        },
        {
            "key": 119337,
            "value": [
                1.0,
                1.58,
                1.54,
                1.82,
                31.93,
                38.23
            ]
        },
        {
            "key": 119338,
            "value": [
                1.0,
                1.58,
                1.54,
                1.82,
                31.93,
                38.23
            ]
        },
        {
            "key": 119339,
            "value": [
                1.0,
                1.58,
                1.57,
                1.75,
                32.29,
                36.44
            ]
        },
        {
            "key": 119340,
            "value": [
                1.0,
                1.58,
                1.56,
                1.75,
                33.09,
                36.44
            ]
        },
        {
            "key": 119341,
            "value": [
                1.0,
                1.51,
                1.42,
                1.55,
                35.23,
                36.12
            ]
        },
        {
            "key": 119342,
            "value": [
                1.0,
                1.52,
                0.99,
                1.61,
                30.73,
                37.13
            ]
        },
        {
            "key": 119344,
            "value": [
                1.0,
                1.82,
                1.44,
                1.61,
                30.72,
                36.65
            ]
        },
        {
            "key": 119345,
            "value": [
                1.0,
                1.61,
                1.36,
                1.73,
                31.87,
                36.42
            ]
        },
        {
            "key": 119346,
            "value": [
                1.0,
                1.63,
                1.36,
                1.7,
                29.11,
                36.71
            ]
        },
        {
            "key": 119347,
            "value": [
                1.0,
                1.08,
                1.35,
                1.7,
                30.69,
                36.71
            ]
        },
        {
            "key": 119349,
            "value": [
                1.0,
                1.37,
                1.36,
                1.82,
                27.89,
                37.22
            ]
        },
        {
            "key": 119350,
            "value": [
                1.0,
                1.37,
                1.36,
                1.82,
                30.27,
                37.22
            ]
        },
        {
            "key": 119351,
            "value": [
                1.0,
                1.34,
                1.38,
                1.76,
                30.27,
                37.22
            ]
        },
        {
            "key": 119352,
            "value": [
                1.0,
                1.37,
                1.38,
                1.62,
                30.27,
                36.63
            ]
        },
        {
            "key": 119353,
            "value": [
                1.0,
                1.32,
                1.38,
                1.51,
                30.27,
                36.63
            ]
        },
        {
            "key": 119354,
            "value": [
                1.0,
                1.14,
                1.48,
                1.51,
                30.3,
                36.63
            ]
        },
        {
            "key": 119355,
            "value": [
                1.0,
                1.18,
                1.48,
                1.51,
                30.3,
                36.63
            ]
        },
        {
            "key": 119356,
            "value": [
                1.0,
                1.11,
                1.48,
                1.72,
                30.3,
                36.63
            ]
        },
        {
            "key": 119357,
            "value": [
                1.0,
                1.2,
                1.3,
                1.52,
                30.3,
                36.63
            ]
        },
        {
            "key": 119358,
            "value": [
                1.0,
                1.2,
                1.3,
                1.52,
                30.3,
                34.12
            ]
        },
        {
            "key": 119359,
            "value": [
                1.0,
                2.27,
                1.42,
                1.52,
                27.36,
                34.12
            ]
        },
        {
            "key": 119360,
            "value": [
                1.0,
                2.27,
                1.58,
                0.91,
                26.94,
                8.5
            ]
        },
        {
            "key": 119361,
            "value": [
                1.0,
                2.1,
                0.71,
                1.55,
                38.9,
                8.5
            ]
        },
        {
            "key": 119362,
            "value": [
                1.0,
                1.74,
                1.26,
                2.55,
                30.3,
                8.5
            ]
        },
        {
            "key": 119363,
            "value": [
                1.0,
                1.81,
                1.58,
                1.01,
                30.3,
                8.5
            ]
        },
        {
            "key": 119364,
            "value": [
                1.0,
                1.27,
                1.58,
                0.91,
                35.99,
                40.92
            ]
        },
        {
            "key": 120000,
            "value": [
                1.0,
                1.47,
                1.11,
                1.51,
                33.6,
                30.92
            ]
        },
        {
            "key": 120001,
            "value": [
                1.0,
                1.47,
                0.9,
                1.31,
                33.6,
                30.92
            ]
        },
        {
            "key": 120002,
            "value": [
                1.0,
                1.47,
                0.78,
                1.31,
                40.25,
                30.92
            ]
        },
        {
            "key": 120003,
            "value": [
                1.0,
                1.47,
                0.78,
                1.31,
                39.41,
                37.47
            ]
        },
        {
            "key": 120004,
            "value": [
                1.0,
                1.49,
                1.6,
                1.56,
                36.87,
                37.47
            ]
        },
        {
            "key": 120005,
            "value": [
                1.0,
                1.51,
                1.64,
                1.56,
                37.49,
                37.47
            ]
        },
        {
            "key": 120006,
            "value": [
                1.0,
                1.33,
                0.87,
                1.42,
                37.49,
                34.21
            ]
        },
        {
            "key": 120007,
            "value": [
                1.0,
                1.1,
                0.77,
                1.29,
                37.49,
                34.16
            ]
        },
        {
            "key": 120009,
            "value": [
                1.0,
                1.03,
                0.92,
                1.24,
                36.34,
                31.96
            ]
        },
        {
            "key": 120010,
            "value": [
                1.0,
                1.03,
                0.92,
                1.27,
                36.34,
                31.96
            ]
        },
        {
            "key": 120011,
            "value": [
                1.0,
                1.16,
                1.12,
                1.27,
                35.53,
                33.54
            ]
        },
        {
            "key": 120012,
            "value": [
                1.0,
                1.16,
                0.97,
                1.04,
                36.5,
                34.06
            ]
        },
        {
            "key": 120013,
            "value": [
                1.0,
                1.16,
                0.91,
                1.09,
                36.5,
                33.59
            ]
        },
        {
            "key": 120014,
            "value": [
                1.0,
                1.18,
                0.91,
                1.09,
                36.15,
                32.83
            ]
        },
        {
            "key": 120015,
            "value": [
                1.0,
                1.18,
                1.16,
                1.05,
                36.55,
                32.83
            ]
        },
        {
            "key": 120016,
            "value": [
                1.0,
                1.18,
                1.16,
                1.05,
                36.55,
                32.65
            ]
        },
        {
            "key": 120017,
            "value": [
                1.0,
                1.22,
                1.13,
                1.29,
                36.37,
                33.06
            ]
        },
        {
            "key": 120018,
            "value": [
                1.0,
                1.09,
                1.36,
                1.16,
                36.11,
                33.06
            ]
        },
        {
            "key": 120019,
            "value": [
                1.0,
                1.02,
                1.34,
                1.09,
                36.11,
                33.69
            ]
        },
        {
            "key": 120020,
            "value": [
                1.0,
                1.28,
                1.33,
                1.36,
                36.31,
                32.63
            ]
        },
        {
            "key": 120021,
            "value": [
                1.0,
                1.28,
                1.16,
                1.05,
                31.69,
                36.18
            ]
        },
        {
            "key": 120022,
            "value": [
                1.0,
                1.28,
                1.16,
                1.19,
                31.24,
                36.18
            ]
        },
        {
            "key": 120023,
            "value": [
                1.0,
                1.28,
                1.16,
                1.19,
                31.24,
                34.55
            ]
        },
        {
            "key": 120024,
            "value": [
                1.0,
                1.42,
                1.24,
                1.35,
                32.81,
                33.64
            ]
        },
        {
            "key": 120025,
            "value": [
                1.0,
                1.42,
                1.18,
                1.22,
                32.81,
                35.96
            ]
        },
        {
            "key": 120026,
            "value": [
                1.0,
                1.26,
                1.2,
                2.07,
                32.81,
                35.96
            ]
        },
        {
            "key": 120027,
            "value": [
                1.0,
                1.28,
                1.07,
                1.83,
                32.81,
                46.0
            ]
        },
        {
            "key": 120033,
            "value": [
                1.0,
                1.36,
                1.32,
                2.03,
                31.26,
                32.02
            ]
        },
        {
            "key": 120034,
            "value": [
                1.0,
                1.36,
                1.44,
                1.75,
                33.02,
                32.02
            ]
        },
        {
            "key": 120035,
            "value": [
                1.0,
                1.37,
                1.38,
                1.3,
                33.02,
                32.02
            ]
        },
        {
            "key": 120036,
            "value": [
                1.0,
                1.37,
                1.39,
                1.36,
                32.39,
                32.02
            ]
        },
        {
            "key": 120037,
            "value": [
                1.0,
                1.39,
                1.19,
                1.36,
                32.39,
                32.02
            ]
        },
        {
            "key": 120038,
            "value": [
                1.0,
                1.39,
                1.19,
                1.64,
                29.11,
                32.02
            ]
        },
        {
            "key": 120041,
            "value": [
                1.0,
                1.76,
                0.99,
                1.38,
                30.51,
                32.68
            ]
        },
        {
            "key": 120042,
            "value": [
                1.0,
                1.55,
                1.28,
                1.44,
                31.51,
                34.14
            ]
        },
        {
            "key": 120043,
            "value": [
                1.0,
                1.59,
                1.23,
                1.38,
                31.51,
                34.14
            ]
        },
        {
            "key": 120044,
            "value": [
                1.0,
                1.6,
                1.18,
                1.38,
                31.22,
                33.87
            ]
        },
        {
            "key": 120045,
            "value": [
                1.0,
                1.51,
                1.19,
                1.38,
                31.22,
                33.87
            ]
        },
        {
            "key": 120046,
            "value": [
                1.0,
                1.51,
                1.19,
                1.37,
                31.32,
                33.3
            ]
        },
        {
            "key": 120047,
            "value": [
                1.0,
                0.51,
                1.24,
                1.43,
                32.45,
                38.68
            ]
        },
        {
            "key": 120048,
            "value": [
                1.0,
                0.51,
                1.27,
                1.21,
                32.45,
                38.68
            ]
        },
        {
            "key": 120049,
            "value": [
                1.0,
                1.29,
                1.37,
                1.39,
                32.45,
                38.68
            ]
        },
        {
            "key": 120050,
            "value": [
                1.0,
                0.84,
                1.33,
                1.35,
                32.08,
                38.68
            ]
        },
        {
            "key": 120051,
            "value": [
                1.0,
                0.84,
                0.51,
                1.37,
                32.08,
                38.68
            ]
        },
        {
            "key": 120052,
            "value": [
                1.0,
                1.14,
                1.16,
                2.29,
                38.6,
                36.14
            ]
        },
        {
            "key": 120053,
            "value": [
                1.0,
                1.4,
                0.98,
                1.62,
                35.36,
                38.01
            ]
        },
        {
            "key": 120059,
            "value": [
                1.0,
                1.55,
                1.54,
                1.8,
                33.34,
                35.12
            ]
        },
        {
            "key": 120060,
            "value": [
                1.0,
                1.62,
                1.44,
                1.96,
                33.34,
                35.12
            ]
        },
        {
            "key": 120061,
            "value": [
                1.0,
                1.59,
                1.44,
                1.96,
                35.59,
                35.12
            ]
        },
        {
            "key": 120062,
            "value": [
                1.0,
                1.54,
                1.35,
                1.99,
                40.2,
                33.62
            ]
        },
        {
            "key": 120063,
            "value": [
                1.0,
                1.55,
                1.46,
                1.99,
                36.03,
                33.62
            ]
        },
        {
            "key": 120064,
            "value": [
                1.0,
                1.57,
                1.46,
                1.96,
                38.52,
                33.51
            ]
        },
        {
            "key": 120065,
            "value": [
                1.0,
                1.57,
                1.47,
                1.96,
                38.52,
                33.51
            ]
        },
        {
            "key": 120066,
            "value": [
                1.0,
                1.57,
                1.47,
                1.96,
                36.37,
                33.51
            ]
        },
        {
            "key": 120067,
            "value": [
                1.0,
                1.47,
                1.48,
                1.93,
                36.37,
                33.51
            ]
        },
        {
            "key": 120068,
            "value": [
                1.0,
                1.54,
                1.45,
                1.92,
                36.75,
                34.2
            ]
        },
        {
            "key": 120069,
            "value": [
                1.0,
                1.53,
                1.45,
                1.93,
                35.92,
                34.2
            ]
        },
        {
            "key": 120070,
            "value": [
                1.0,
                1.58,
                1.45,
                1.88,
                35.92,
                34.2
            ]
        },
        {
            "key": 120071,
            "value": [
                1.0,
                1.57,
                1.45,
                1.82,
                35.92,
                32.66
            ]
        },
        {
            "key": 120072,
            "value": [
                1.0,
                1.57,
                1.43,
                1.88,
                35.92,
                32.66
            ]
        },
        {
            "key": 120073,
            "value": [
                1.0,
                1.54,
                1.37,
                1.9,
                35.92,
                32.66
            ]
        },
        {
            "key": 120074,
            "value": [
                1.0,
                1.54,
                1.41,
                1.9,
                34.51,
                32.66
            ]
        },
        {
            "key": 120075,
            "value": [
                1.0,
                1.74,
                1.63,
                1.88,
                32.95,
                32.66
            ]
        },
        {
            "key": 120076,
            "value": [
                1.0,
                1.69,
                1.58,
                2.05,
                32.95,
                32.66
            ]
        },
        {
            "key": 120077,
            "value": [
                1.0,
                1.69,
                1.58,
                2.05,
                34.52,
                33.61
            ]
        },
        {
            "key": 120078,
            "value": [
                1.0,
                1.85,
                1.66,
                2.05,
                34.52,
                33.61
            ]
        },
        {
            "key": 120079,
            "value": [
                1.0,
                1.85,
                1.66,
                1.79,
                36.12,
                34.03
            ]
        },
        {
            "key": 120080,
            "value": [
                1.0,
                1.96,
                1.67,
                1.68,
                38.45,
                36.31
            ]
        },
        {
            "key": 120081,
            "value": [
                1.0,
                1.83,
                1.65,
                1.68,
                39.08,
                36.31
            ]
        },
        {
            "key": 120082,
            "value": [
                1.0,
                1.84,
                1.69,
                1.72,
                39.08,
                36.31
            ]
        },
        {
            "key": 120083,
            "value": [
                1.0,
                1.84,
                1.53,
                1.72,
                39.08,
                36.31
            ]
        },
        {
            "key": 120084,
            "value": [
                1.0,
                1.65,
                1.5,
                1.65,
                39.08,
                31.83
            ]
        },
        {
            "key": 120086,
            "value": [
                1.0,
                1.41,
                1.4,
                1.6,
                32.24,
                31.98
            ]
        },
        {
            "key": 120087,
            "value": [
                1.0,
                1.36,
                1.39,
                1.39,
                31.22,
                31.98
            ]
        },
        {
            "key": 120088,
            "value": [
                1.0,
                1.41,
                1.35,
                1.31,
                31.17,
                32.63
            ]
        },
        {
            "key": 120089,
            "value": [
                1.0,
                1.48,
                1.4,
                1.28,
                28.16,
                32.63
            ]
        },
        {
            "key": 120090,
            "value": [
                1.0,
                1.41,
                1.54,
                1.28,
                28.16,
                34.15
            ]
        },
        {
            "key": 120091,
            "value": [
                1.0,
                1.26,
                1.47,
                1.28,
                30.09,
                34.15
            ]
        },
        {
            "key": 120092,
            "value": [
                1.0,
                1.35,
                1.47,
                1.28,
                30.09,
                32.93
            ]
        },
        {
            "key": 120093,
            "value": [
                1.0,
                1.4,
                1.47,
                1.28,
                25.79,
                32.93
            ]
        },
        {
            "key": 120094,
            "value": [
                1.0,
                1.22,
                1.47,
                0.99,
                23.65,
                32.93
            ]
        },
        {
            "key": 120095,
            "value": [
                1.0,
                5.87,
                1.28,
                0.99,
                21.31,
                32.93
            ]
        },
        {
            "key": 120096,
            "value": [
                1.0,
                3.95,
                1.28,
                1.32,
                21.94,
                32.93
            ]
        },
        {
            "key": 120099,
            "value": [
                1.0,
                1.6,
                1.42,
                1.05,
                22.25,
                31.07
            ]
        },
        {
            "key": 120100,
            "value": [
                1.0,
                1.6,
                1.42,
                1.05,
                22.25,
                31.53
            ]
        },
        {
            "key": 120101,
            "value": [
                1.0,
                1.61,
                1.42,
                1.07,
                22.25,
                31.53
            ]
        },
        {
            "key": 120102,
            "value": [
                1.0,
                1.56,
                1.43,
                1.33,
                22.25,
                29.83
            ]
        },
        {
            "key": 120103,
            "value": [
                1.0,
                1.63,
                1.58,
                1.42,
                20.38,
                30.16
            ]
        },
        {
            "key": 120104,
            "value": [
                1.0,
                1.62,
                1.8,
                1.42,
                18.09,
                22.11
            ]
        },
        {
            "key": 120106,
            "value": [
                1.0,
                1.59,
                1.59,
                1.41,
                17.25,
                18.07
            ]
        },
        {
            "key": 120107,
            "value": [
                1.0,
                1.54,
                1.72,
                1.4,
                17.25,
                18.07
            ]
        },
        {
            "key": 120108,
            "value": [
                1.0,
                1.49,
                2.02,
                1.72,
                17.25,
                19.34
            ]
        },
        {
            "key": 120109,
            "value": [
                1.0,
                1.39,
                2.12,
                1.56,
                17.25,
                21.0
            ]
        },
        {
            "key": 120110,
            "value": [
                1.0,
                1.45,
                1.9,
                1.55,
                17.47,
                22.35
            ]
        },
        {
            "key": 120111,
            "value": [
                1.0,
                1.45,
                2.04,
                1.5,
                17.47,
                21.4
            ]
        },
        {
            "key": 120112,
            "value": [
                1.0,
                1.74,
                2.0,
                1.47,
                17.47,
                21.4
            ]
        },
        {
            "key": 120113,
            "value": [
                1.0,
                1.68,
                2.0,
                1.48,
                17.47,
                19.44
            ]
        },
        {
            "key": 120114,
            "value": [
                1.0,
                1.71,
                1.9,
                2.01,
                17.47,
                19.44
            ]
        },
        {
            "key": 120115,
            "value": [
                1.0,
                1.65,
                1.68,
                1.9,
                17.73,
                19.88
            ]
        },
        {
            "key": 120116,
            "value": [
                1.0,
                1.55,
                1.67,
                1.74,
                17.73,
                19.72
            ]
        },
        {
            "key": 120117,
            "value": [
                1.0,
                1.55,
                1.67,
                1.94,
                17.73,
                17.82
            ]
        },
        {
            "key": 120118,
            "value": [
                1.0,
                1.55,
                1.67,
                1.94,
                17.73,
                17.82
            ]
        },
        {
            "key": 120119,
            "value": [
                1.0,
                1.57,
                1.54,
                1.95,
                11.38,
                17.82
            ]
        },
        {
            "key": 120120,
            "value": [
                1.0,
                1.76,
                1.51,
                1.92,
                11.38,
                17.82
            ]
        },
        {
            "key": 120121,
            "value": [
                1.0,
                1.69,
                1.46,
                2.49,
                11.38,
                15.64
            ]
        },
        {
            "key": 120122,
            "value": [
                1.0,
                1.78,
                1.43,
                2.01,
                11.38,
                15.64
            ]
        },
        {
            "key": 120123,
            "value": [
                1.0,
                1.87,
                1.43,
                2.2,
                11.38,
                15.64
            ]
        },
        {
            "key": 120124,
            "value": [
                1.0,
                1.87,
                1.42,
                2.27,
                11.38,
                15.64
            ]
        },
        {
            "key": 120125,
            "value": [
                1.0,
                1.92,
                1.43,
                2.28,
                15.98,
                15.64
            ]
        },
        {
            "key": 120126,
            "value": [
                1.0,
                2.21,
                1.7,
                2.18,
                18.18,
                16.38
            ]
        },
        {
            "key": 120127,
            "value": [
                1.0,
                2.21,
                1.7,
                2.2,
                18.18,
                16.42
            ]
        },
        {
            "key": 120128,
            "value": [
                1.0,
                1.92,
                1.74,
                2.03,
                17.35,
                19.85
            ]
        },
        {
            "key": 120129,
            "value": [
                1.0,
                2.03,
                2.02,
                2.24,
                17.35,
                19.53
            ]
        },
        {
            "key": 120130,
            "value": [
                1.0,
                1.87,
                2.22,
                2.81,
                18.23,
                20.0
            ]
        },
        {
            "key": 120131,
            "value": [
                1.0,
                1.87,
                2.22,
                2.81,
                18.23,
                20.0
            ]
        },
        {
            "key": 120132,
            "value": [
                1.0,
                1.87,
                2.36,
                2.13,
                18.09,
                20.0
            ]
        },
        {
            "key": 120138,
            "value": [
                1.0,
                1.99,
                2.5,
                2.16,
                18.09,
                19.19
            ]
        },
        {
            "key": 120139,
            "value": [
                1.0,
                1.95,
                2.23,
                2.56,
                18.17,
                17.27
            ]
        },
        {
            "key": 120140,
            "value": [
                1.0,
                1.95,
                2.2,
                1.92,
                15.57,
                17.27
            ]
        },
        {
            "key": 120141,
            "value": [
                1.0,
                2.38,
                2.24,
                2.2,
                15.57,
                21.33
            ]
        },
        {
            "key": 120142,
            "value": [
                1.0,
                3.65,
                2.15,
                2.9,
                13.14,
                16.59
            ]
        },
        {
            "key": 120143,
            "value": [
                1.0,
                3.33,
                2.76,
                2.44,
                15.99,
                17.28
            ]
        },
        {
            "key": 120144,
            "value": [
                1.0,
                3.01,
                1.9,
                2.29,
                18.97,
                17.12
            ]
        },
        {
            "key": 120145,
            "value": [
                1.0,
                3.14,
                2.05,
                2.5,
                18.51,
                17.12
            ]
        },
        {
            "key": 120146,
            "value": [
                1.0,
                3.61,
                2.69,
                2.35,
                18.35,
                17.12
            ]
        },
        {
            "key": 120147,
            "value": [
                1.0,
                3.53,
                2.48,
                2.24,
                18.35,
                17.12
            ]
        },
        {
            "key": 120148,
            "value": [
                1.0,
                3.42,
                2.85,
                2.35,
                17.96,
                16.84
            ]
        },
        {
            "key": 120149,
            "value": [
                1.0,
                3.52,
                2.47,
                2.39,
                17.69,
                14.89
            ]
        },
        {
            "key": 120150,
            "value": [
                1.0,
                2.69,
                2.25,
                2.37,
                17.69,
                14.89
            ]
        },
        {
            "key": 120151,
            "value": [
                1.0,
                2.69,
                2.5,
                2.48,
                18.71,
                18.98
            ]
        },
        {
            "key": 120152,
            "value": [
                1.0,
                3.23,
                2.73,
                2.37,
                17.54,
                19.05
            ]
        },
        {
            "key": 120153,
            "value": [
                1.0,
                2.78,
                2.4,
                2.37,
                17.54,
                19.05
            ]
        },
        {
            "key": 120154,
            "value": [
                1.0,
                3.0,
                2.3,
                2.62,
                18.3,
                18.3
            ]
        },
        {
            "key": 120155,
            "value": [
                1.0,
                3.19,
                2.47,
                2.82,
                17.7,
                18.3
            ]
        },
        {
            "key": 120162,
            "value": [
                1.0,
                2.28,
                2.3,
                2.81,
                18.21,
                18.36
            ]
        },
        {
            "key": 120163,
            "value": [
                1.0,
                2.36,
                2.23,
                2.83,
                18.21,
                18.36
            ]
        },
        {
            "key": 120164,
            "value": [
                1.0,
                2.45,
                2.37,
                2.83,
                17.99,
                18.36
            ]
        },
        {
            "key": 120165,
            "value": [
                1.0,
                2.45,
                2.37,
                2.84,
                14.31,
                15.77
            ]
        },
        {
            "key": 120166,
            "value": [
                1.0,
                2.37,
                2.45,
                3.04,
                17.95,
                18.11
            ]
        },
        {
            "key": 120167,
            "value": [
                1.0,
                2.11,
                2.16,
                3.42,
                18.55,
                19.28
            ]
        },
        {
            "key": 120168,
            "value": [
                1.0,
                1.62,
                2.44,
                2.76,
                11.64,
                17.16
            ]
        },
        {
            "key": 120169,
            "value": [
                1.0,
                1.62,
                2.75,
                2.76,
                11.64,
                17.16
            ]
        },
        {
            "key": 120170,
            "value": [
                1.0,
                1.62,
                2.75,
                2.76,
                11.64,
                17.16
            ]
        },
        {
            "key": 120171,
            "value": [
                1.0,
                1.86,
                2.61,
                2.7,
                15.85,
                19.07
            ]
        },
        {
            "key": 120172,
            "value": [
                1.0,
                1.86,
                2.61,
                2.7,
                15.85,
                19.07
            ]
        },
        {
            "key": 120173,
            "value": [
                1.0,
                1.86,
                2.61,
                2.72,
                15.85,
                19.07
            ]
        },
        {
            "key": 120174,
            "value": [
                1.0,
                1.9,
                2.46,
                2.61,
                14.15,
                19.07
            ]
        },
        {
            "key": 120175,
            "value": [
                1.0,
                1.81,
                2.42,
                2.61,
                16.51,
                19.07
            ]
        },
        {
            "key": 120176,
            "value": [
                1.0,
                1.81,
                2.42,
                2.39,
                14.53,
                19.07
            ]
        },
        {
            "key": 120178,
            "value": [
                1.0,
                1.77,
                2.39,
                2.38,
                15.99,
                13.16
            ]
        },
        {
            "key": 120180,
            "value": [
                1.0,
                2.04,
                2.58,
                2.63,
                15.96,
                20.16
            ]
        },
        {
            "key": 120181,
            "value": [
                1.0,
                2.81,
                2.58,
                2.46,
                17.07,
                26.13
            ]
        },
        {
            "key": 120182,
            "value": [
                1.0,
                2.65,
                2.52,
                2.67,
                17.35,
                20.59
            ]
        },
        {
            "key": 120183,
            "value": [
                1.0,
                2.65,
                2.52,
                2.62,
                17.35,
                22.23
            ]
        },
        {
            "key": 120184,
            "value": [
                1.0,
                2.67,
                2.66,
                3.21,
                17.35,
                21.8
            ]
        },
        {
            "key": 120185,
            "value": [
                1.0,
                2.62,
                2.57,
                3.34,
                16.4,
                21.8
            ]
        },
        {
            "key": 120186,
            "value": [
                1.0,
                2.76,
                2.84,
                3.23,
                15.79,
                21.8
            ]
        },
        {
            "key": 120187,
            "value": [
                1.0,
                2.37,
                2.84,
                3.1,
                15.79,
                21.8
            ]
        },
        {
            "key": 120188,
            "value": [
                1.0,
                2.56,
                2.67,
                3.29,
                15.79,
                21.8
            ]
        },
        {
            "key": 120189,
            "value": [
                1.0,
                2.28,
                2.71,
                3.84,
                16.01,
                20.53
            ]
        },
        {
            "key": 120190,
            "value": [
                1.0,
                2.32,
                2.72,
                3.6,
                16.01,
                20.53
            ]
        },
        {
            "key": 120191,
            "value": [
                1.0,
                2.52,
                2.65,
                3.64,
                16.01,
                20.53
            ]
        },
        {
            "key": 120192,
            "value": [
                1.0,
                2.55,
                2.35,
                4.24,
                14.84,
                20.53
            ]
        },
        {
            "key": 120193,
            "value": [
                1.0,
                2.55,
                2.35,
                3.95,
                14.84,
                20.53
            ]
        },
        {
            "key": 120194,
            "value": [
                1.0,
                2.55,
                2.35,
                3.98,
                14.84,
                20.53
            ]
        },
        {
            "key": 120195,
            "value": [
                1.0,
                2.39,
                2.28,
                3.89,
                14.84,
                20.53
            ]
        },
        {
            "key": 120196,
            "value": [
                1.0,
                2.39,
                2.28,
                4.25,
                14.84,
                25.13
            ]
        },
        {
            "key": 120197,
            "value": [
                1.0,
                3.26,
                2.28,
                4.1,
                14.84,
                25.13
            ]
        },
        {
            "key": 120198,
            "value": [
                1.0,
                2.64,
                2.26,
                4.13,
                14.84,
                26.72
            ]
        },
        {
            "key": 120199,
            "value": [
                1.0,
                2.64,
                2.26,
                4.23,
                14.84,
                26.72
            ]
        },
        {
            "key": 120200,
            "value": [
                1.0,
                2.9,
                2.21,
                4.23,
                15.9,
                26.72
            ]
        },
        {
            "key": 120201,
            "value": [
                1.0,
                2.69,
                2.28,
                4.03,
                15.9,
                26.72
            ]
        },
        {
            "key": 120202,
            "value": [
                1.0,
                2.75,
                2.28,
                4.71,
                14.59,
                26.72
            ]
        },
        {
            "key": 120203,
            "value": [
                1.0,
                2.79,
                2.24,
                4.39,
                14.59,
                26.72
            ]
        },
        {
            "key": 120204,
            "value": [
                1.0,
                2.83,
                2.21,
                4.3,
                15.75,
                26.72
            ]
        },
        {
            "key": 120205,
            "value": [
                1.0,
                2.89,
                2.25,
                4.19,
                16.03,
                27.06
            ]
        },
        {
            "key": 120206,
            "value": [
                1.0,
                3.3,
                2.25,
                4.62,
                16.03,
                27.06
            ]
        },
        {
            "key": 120207,
            "value": [
                1.0,
                3.34,
                2.26,
                4.62,
                16.03,
                26.33
            ]
        },
        {
            "key": 120208,
            "value": [
                1.0,
                3.37,
                2.0,
                4.79,
                13.92,
                24.61
            ]
        },
        {
            "key": 120209,
            "value": [
                1.0,
                3.37,
                2.02,
                5.23,
                13.87,
                24.61
            ]
        },
        {
            "key": 120210,
            "value": [
                1.0,
                3.44,
                2.02,
                5.05,
                14.8,
                24.61
            ]
        }
    ]
}